f_1: 1.949962e+00 Hz
f_2: 4.717083e+00 Hz
f_3: 7.866528e+00 Hz
f_4: 1.095233e+01 Hz
f_5: 1.371431e+01 Hz
f_6: 1.663774e+01 Hz

Starting Importance Sampling Analysis...

IS: FORM Results not found
IS: Starting FORM to search for the design point...
 
FORM: Finished.

IS: FORM finished.
 
IS: Finished.
 
-------------------------------------------
Importance Sampling
-------------------------------------------
Pf               3.2031e-19       
Beta             8.8848           
CoV              0.0499           
ModelEvaluations 4247             
PfCI             [2.8900e-19  3.516120e-19]
BetaCI           [8.8744e+00  8.896182e+00]
-------------------------------------------

